%YAML 1.1
%TAG !u! tag:unity3d.com,2011:
--- !u!1001 &1930271212563354788
PrefabInstance:
  m_ObjectHideFlags: 0
  serializedVersion: 2
  m_Modification:
    serializedVersion: 3
    m_TransformParent: {fileID: 0}
    m_Modifications:
    - target: {fileID: 667768439305082594, guid: 146baf7aaccab2949a87118ab13da980,
        type: 3}
      propertyPath: m_RootOrder
      value: 2
      objectReference: {fileID: 0}
    - target: {fileID: 813168052003540594, guid: 146baf7aaccab2949a87118ab13da980,
        type: 3}
      propertyPath: m_RootOrder
      value: 3
      objectReference: {fileID: 0}
    - target: {fileID: 1846997792746735460, guid: 146baf7aaccab2949a87118ab13da980,
        type: 3}
      propertyPath: _activeStates.Array.size
      value: 4
      objectReference: {fileID: 0}
    - target: {fileID: 2669492687971711399, guid: 146baf7aaccab2949a87118ab13da980,
        type: 3}
      propertyPath: m_RootOrder
      value: 1
      objectReference: {fileID: 0}
    - target: {fileID: 3232916985530405710, guid: 146baf7aaccab2949a87118ab13da980,
        type: 3}
      propertyPath: m_Size.z
      value: 0.65
      objectReference: {fileID: 0}
    - target: {fileID: 3232916985530405710, guid: 146baf7aaccab2949a87118ab13da980,
        type: 3}
      propertyPath: m_Center.z
      value: -0.09
      objectReference: {fileID: 0}
    - target: {fileID: 3453907443211721073, guid: 146baf7aaccab2949a87118ab13da980,
        type: 3}
      propertyPath: m_AnchorMax.y
      value: 0
      objectReference: {fileID: 0}
    - target: {fileID: 3453907443211721073, guid: 146baf7aaccab2949a87118ab13da980,
        type: 3}
      propertyPath: m_AnchorMin.y
      value: 0
      objectReference: {fileID: 0}
    - target: {fileID: 3453907443211721073, guid: 146baf7aaccab2949a87118ab13da980,
        type: 3}
      propertyPath: m_SizeDelta.x
      value: 0
      objectReference: {fileID: 0}
    - target: {fileID: 3453907443211721073, guid: 146baf7aaccab2949a87118ab13da980,
        type: 3}
      propertyPath: m_AnchoredPosition.x
      value: 0
      objectReference: {fileID: 0}
    - target: {fileID: 3453907443211721073, guid: 146baf7aaccab2949a87118ab13da980,
        type: 3}
      propertyPath: m_AnchoredPosition.y
      value: 0
      objectReference: {fileID: 0}
    - target: {fileID: 4355671476390373071, guid: 146baf7aaccab2949a87118ab13da980,
        type: 3}
      propertyPath: _activeStates.Array.size
      value: 4
      objectReference: {fileID: 0}
    - target: {fileID: 5903101493444367070, guid: 146baf7aaccab2949a87118ab13da980,
        type: 3}
      propertyPath: m_AnchorMax.y
      value: 0
      objectReference: {fileID: 0}
    - target: {fileID: 5903101493444367070, guid: 146baf7aaccab2949a87118ab13da980,
        type: 3}
      propertyPath: m_AnchorMin.y
      value: 0
      objectReference: {fileID: 0}
    - target: {fileID: 5903101493444367070, guid: 146baf7aaccab2949a87118ab13da980,
        type: 3}
      propertyPath: m_SizeDelta.x
      value: 0
      objectReference: {fileID: 0}
    - target: {fileID: 5903101493444367070, guid: 146baf7aaccab2949a87118ab13da980,
        type: 3}
      propertyPath: m_AnchoredPosition.x
      value: 0
      objectReference: {fileID: 0}
    - target: {fileID: 5903101493444367070, guid: 146baf7aaccab2949a87118ab13da980,
        type: 3}
      propertyPath: m_AnchoredPosition.y
      value: 0
      objectReference: {fileID: 0}
    - target: {fileID: 7965100877327300404, guid: 146baf7aaccab2949a87118ab13da980,
        type: 3}
      propertyPath: _interactors.Array.data[0]._confirm
      value: 
      objectReference: {fileID: 0}
    - target: {fileID: 7965100877327300404, guid: 146baf7aaccab2949a87118ab13da980,
        type: 3}
      propertyPath: _interactors.Array.data[1]._confirm
      value: 
      objectReference: {fileID: 0}
    - target: {fileID: 7965100877327300410, guid: 146baf7aaccab2949a87118ab13da980,
        type: 3}
      propertyPath: m_RootOrder
      value: 1
      objectReference: {fileID: 0}
    - target: {fileID: 7965100877327300410, guid: 146baf7aaccab2949a87118ab13da980,
        type: 3}
      propertyPath: m_LocalPosition.x
      value: 0.381
      objectReference: {fileID: 0}
    - target: {fileID: 7965100877327300410, guid: 146baf7aaccab2949a87118ab13da980,
        type: 3}
      propertyPath: m_LocalPosition.y
      value: 0.771
      objectReference: {fileID: 0}
    - target: {fileID: 7965100877327300410, guid: 146baf7aaccab2949a87118ab13da980,
        type: 3}
      propertyPath: m_LocalPosition.z
      value: 0.437
      objectReference: {fileID: 0}
    - target: {fileID: 7965100877327300410, guid: 146baf7aaccab2949a87118ab13da980,
        type: 3}
      propertyPath: m_LocalRotation.w
      value: 1
      objectReference: {fileID: 0}
    - target: {fileID: 7965100877327300410, guid: 146baf7aaccab2949a87118ab13da980,
        type: 3}
      propertyPath: m_LocalRotation.x
      value: -0
      objectReference: {fileID: 0}
    - target: {fileID: 7965100877327300410, guid: 146baf7aaccab2949a87118ab13da980,
        type: 3}
      propertyPath: m_LocalRotation.y
      value: -0
      objectReference: {fileID: 0}
    - target: {fileID: 7965100877327300410, guid: 146baf7aaccab2949a87118ab13da980,
        type: 3}
      propertyPath: m_LocalRotation.z
      value: -0
      objectReference: {fileID: 0}
    - target: {fileID: 7965100877327300410, guid: 146baf7aaccab2949a87118ab13da980,
        type: 3}
      propertyPath: m_LocalEulerAnglesHint.x
      value: 0
      objectReference: {fileID: 0}
    - target: {fileID: 7965100877327300410, guid: 146baf7aaccab2949a87118ab13da980,
        type: 3}
      propertyPath: m_LocalEulerAnglesHint.y
      value: 0
      objectReference: {fileID: 0}
    - target: {fileID: 7965100877327300410, guid: 146baf7aaccab2949a87118ab13da980,
        type: 3}
      propertyPath: m_LocalEulerAnglesHint.z
      value: 0
      objectReference: {fileID: 0}
    - target: {fileID: 7965100877327300411, guid: 146baf7aaccab2949a87118ab13da980,
        type: 3}
      propertyPath: m_Name
      value: PictureFrame Variant
      objectReference: {fileID: 0}
    - target: {fileID: 7965100877327300411, guid: 146baf7aaccab2949a87118ab13da980,
        type: 3}
      propertyPath: m_IsActive
      value: 1
      objectReference: {fileID: 0}
    - target: {fileID: 7965100877371388063, guid: 146baf7aaccab2949a87118ab13da980,
        type: 3}
      propertyPath: m_AnchorMax.y
      value: 0
      objectReference: {fileID: 0}
    - target: {fileID: 7965100877371388063, guid: 146baf7aaccab2949a87118ab13da980,
        type: 3}
      propertyPath: m_AnchorMin.y
      value: 0
      objectReference: {fileID: 0}
    - target: {fileID: 7965100877371388063, guid: 146baf7aaccab2949a87118ab13da980,
        type: 3}
      propertyPath: m_SizeDelta.x
      value: 0
      objectReference: {fileID: 0}
    - target: {fileID: 7965100877371388063, guid: 146baf7aaccab2949a87118ab13da980,
        type: 3}
      propertyPath: m_AnchoredPosition.x
      value: 0
      objectReference: {fileID: 0}
    - target: {fileID: 7965100877371388063, guid: 146baf7aaccab2949a87118ab13da980,
        type: 3}
      propertyPath: m_AnchoredPosition.y
      value: 0
      objectReference: {fileID: 0}
    - target: {fileID: 7965100877925655332, guid: 146baf7aaccab2949a87118ab13da980,
        type: 3}
      propertyPath: m_AnchorMax.y
      value: 0
      objectReference: {fileID: 0}
    - target: {fileID: 7965100877925655332, guid: 146baf7aaccab2949a87118ab13da980,
        type: 3}
      propertyPath: m_AnchorMin.y
      value: 0
      objectReference: {fileID: 0}
    - target: {fileID: 7965100877925655332, guid: 146baf7aaccab2949a87118ab13da980,
        type: 3}
      propertyPath: m_SizeDelta.x
      value: 0
      objectReference: {fileID: 0}
    - target: {fileID: 7965100877925655332, guid: 146baf7aaccab2949a87118ab13da980,
        type: 3}
      propertyPath: m_AnchoredPosition.x
      value: 0
      objectReference: {fileID: 0}
    - target: {fileID: 7965100877925655332, guid: 146baf7aaccab2949a87118ab13da980,
        type: 3}
      propertyPath: m_AnchoredPosition.y
      value: 0
      objectReference: {fileID: 0}
    - target: {fileID: 7965100878268964372, guid: 146baf7aaccab2949a87118ab13da980,
        type: 3}
      propertyPath: m_AnchorMax.y
      value: 0
      objectReference: {fileID: 0}
    - target: {fileID: 7965100878268964372, guid: 146baf7aaccab2949a87118ab13da980,
        type: 3}
      propertyPath: m_AnchorMin.y
      value: 0
      objectReference: {fileID: 0}
    - target: {fileID: 7965100878268964372, guid: 146baf7aaccab2949a87118ab13da980,
        type: 3}
      propertyPath: m_SizeDelta.x
      value: 0
      objectReference: {fileID: 0}
    - target: {fileID: 7965100878268964372, guid: 146baf7aaccab2949a87118ab13da980,
        type: 3}
      propertyPath: m_AnchoredPosition.x
      value: 0
      objectReference: {fileID: 0}
    - target: {fileID: 7965100878268964372, guid: 146baf7aaccab2949a87118ab13da980,
        type: 3}
      propertyPath: m_AnchoredPosition.y
      value: 0
      objectReference: {fileID: 0}
    - target: {fileID: 7965100878957272868, guid: 146baf7aaccab2949a87118ab13da980,
        type: 3}
      propertyPath: m_AnchorMax.y
      value: 0
      objectReference: {fileID: 0}
    - target: {fileID: 7965100878957272868, guid: 146baf7aaccab2949a87118ab13da980,
        type: 3}
      propertyPath: m_AnchorMin.y
      value: 0
      objectReference: {fileID: 0}
    - target: {fileID: 7965100878957272868, guid: 146baf7aaccab2949a87118ab13da980,
        type: 3}
      propertyPath: m_SizeDelta.x
      value: 0
      objectReference: {fileID: 0}
    - target: {fileID: 7965100878957272868, guid: 146baf7aaccab2949a87118ab13da980,
        type: 3}
      propertyPath: m_AnchoredPosition.x
      value: 0
      objectReference: {fileID: 0}
    - target: {fileID: 7965100878957272868, guid: 146baf7aaccab2949a87118ab13da980,
        type: 3}
      propertyPath: m_AnchoredPosition.y
      value: 0
      objectReference: {fileID: 0}
    - target: {fileID: 7965100879200458318, guid: 146baf7aaccab2949a87118ab13da980,
        type: 3}
      propertyPath: m_SizeDelta.x
      value: 0
      objectReference: {fileID: 0}
    - target: {fileID: 8424224107437135783, guid: 146baf7aaccab2949a87118ab13da980,
        type: 3}
      propertyPath: m_AnchorMax.y
      value: 0
      objectReference: {fileID: 0}
    - target: {fileID: 8424224107437135783, guid: 146baf7aaccab2949a87118ab13da980,
        type: 3}
      propertyPath: m_AnchorMin.y
      value: 0
      objectReference: {fileID: 0}
    - target: {fileID: 8424224107437135783, guid: 146baf7aaccab2949a87118ab13da980,
        type: 3}
      propertyPath: m_SizeDelta.x
      value: 0
      objectReference: {fileID: 0}
    - target: {fileID: 8424224107437135783, guid: 146baf7aaccab2949a87118ab13da980,
        type: 3}
      propertyPath: m_AnchoredPosition.x
      value: 0
      objectReference: {fileID: 0}
    - target: {fileID: 8424224107437135783, guid: 146baf7aaccab2949a87118ab13da980,
        type: 3}
      propertyPath: m_AnchoredPosition.y
      value: 0
      objectReference: {fileID: 0}
    - target: {fileID: 9019079644866100300, guid: 146baf7aaccab2949a87118ab13da980,
        type: 3}
      propertyPath: m_Size.z
      value: 0.69
      objectReference: {fileID: 0}
    - target: {fileID: 9019079644866100300, guid: 146baf7aaccab2949a87118ab13da980,
        type: 3}
      propertyPath: m_Center.z
      value: -0.09
      objectReference: {fileID: 0}
    m_RemovedComponents: []
    m_RemovedGameObjects:
    - {fileID: 4625042227062156409, guid: 146baf7aaccab2949a87118ab13da980, type: 3}
    - {fileID: 4978679553753215891, guid: 146baf7aaccab2949a87118ab13da980, type: 3}
    - {fileID: 8594422034601658433, guid: 146baf7aaccab2949a87118ab13da980, type: 3}
    - {fileID: 7965100879247824864, guid: 146baf7aaccab2949a87118ab13da980, type: 3}
    - {fileID: 8424224107437135780, guid: 146baf7aaccab2949a87118ab13da980, type: 3}
    - {fileID: 5903101493444367069, guid: 146baf7aaccab2949a87118ab13da980, type: 3}
    - {fileID: 3453907443211721074, guid: 146baf7aaccab2949a87118ab13da980, type: 3}
    m_AddedGameObjects: []
    m_AddedComponents: []
  m_SourcePrefab: {fileID: 100100000, guid: 146baf7aaccab2949a87118ab13da980, type: 3}
